{
  "block": {
    "code": "tiki_listing",
    "title": "Tiki Listing",
    "icon": ""
  },
  "data": [],
  "paging": {
    "current_page": 7,
    "from": 241,
    "last_page": 6,
    "per_page": 40,
    "to": 280,
    "total": 237
  },
  "filters": [],
  "amplitude": {
    "number_of_brand_store_ad": "0",
    "number_of_display_ad": "0",
    "number_of_sponsored_product_ad": "0",
    "search_experiment_variant": "",
    "search_location": "VN039006001",
    "search_request": "http://tiki.vn/full/v2/products?_v=filter_revamp&category=1789&category=1789&limit=50&page=7&page=7&sort=newest&sort=newest",
    "selected_sort_option": "newest",
    "seller_product_sku": "",
    "user_strategy": "filter_revamp"
  },
  "sort_options": [
    {
      "display_value": "Phổ biến",
      "query_value": "default",
      "selected": false
    },
    {
      "display_value": "Bán chạy",
      "query_value": "top_seller",
      "selected": false
    },
    {
      "display_value": "Hàng mới",
      "query_value": "newest",
      "selected": true
    },
    {
      "display_value": "Giá thấp đến cao",
      "query_value": "price,asc",
      "selected": false
    },
    {
      "display_value": "Giá cao đến thấp",
      "query_value": "price,desc",
      "selected": false
    }
  ],
  "widgets": [],
  "experiment_variants": {},
  "model_debug": null,
  "trace_id": "HNiec9s7EIhJytOf",
  "items": []
}
